{
  "meta": {
    "count": 5,
    "pageCount": 194539,
    "totalCount": 972694,
    "next": "/api/v2/blocks?limit=5&page=2",
    "previous": null,
    "self": "/api/v2/blocks?limit=5&page=1",
    "first": "/api/v2/blocks?limit=5&page=1",
    "last": "/api/v2/blocks?limit=5&page=194539"
  },
  "data": [
    {
      "id": "10484240386775133218",
      "version": 0,
      "height": 972694,
      "previous": "7897677670864679642",
      "forged": {
        "reward": 200000000,
        "fee": 0,
        "total": 200000000,
        "amount": 0
      },
      "payload": {
        "hash": "e3b0c44298fc1c149afbf4c8996fb92427ae41e4649b934ca495991b7852b855",
        "length": 0
      },
      "generator": {
        "username": "charmeleon",
        "address": "D59vkjfnxazDGZyDynnMeuj7vEcKFtuhgJ",
        "publicKey": "0346d5955d846d0d809b80d1826eccdb6e8f38d1686633afbd91903e84da94b16c"
      },
      "signature": "3045022100b7c04860359e059a7cd9f5c246a1a5b1b500ed8591cf5c78b651515eeae90740022063c4e7e2a1294999405dfe3d991726286a69e793b1ac13f375139b3440855a1e",
      "transactions": 0,
      "timestamp": {
        "epoch": 54335576,
        "unix": 1544436776,
        "human": "2018-12-10T10:12:56.000Z"
      }
    },
    {
      "id": "7897677670864679642",
      "version": 0,
      "height": 972693,
      "previous": "17683763999369339115",
      "forged": {
        "reward": 200000000,
        "fee": 0,
        "total": 200000000,
        "amount": 0
      },
      "payload": {
        "hash": "e3b0c44298fc1c149afbf4c8996fb92427ae41e4649b934ca495991b7852b855",
        "length": 0
      },
      "generator": {
        "username": "pidgey",
        "address": "DUTDJhPnR89oEXfkrHuLnDPmfE5sAsmggn",
        "publicKey": "03b626cb6ebdba588697871551e2393f14fd1b52e08c590e6eb8c2088db222c1f1"
      },
      "signature": "304402200bd0236e2cff3f3828cdfc7a2dec2a0717e0764b1794ab3ab30cf631bf793b5e02202f07ee073112e9b18a2170cd1062803e2ac1c75478dddffc454367cde690f153",
      "transactions": 0,
      "timestamp": {
        "epoch": 54335568,
        "unix": 1544436768,
        "human": "2018-12-10T10:12:48.000Z"
      }
    },
    {
      "id": "17683763999369339115",
      "version": 0,
      "height": 972692,
      "previous": "5213475885855819756",
      "forged": {
        "reward": 200000000,
        "fee": 0,
        "total": 200000000,
        "amount": 0
      },
      "payload": {
        "hash": "e3b0c44298fc1c149afbf4c8996fb92427ae41e4649b934ca495991b7852b855",
        "length": 0
      },
      "generator": {
        "username": "gloom",
        "address": "DS3tZr252ob1tSSeUD4R337qGqrWYjz4mV",
        "publicKey": "0293f0d39a6fa3457fc4adac139ab58fea8532699e5cdc78faa345d4fdcf942b32"
      },
      "signature": "3045022100d79b7096a1511eacb8e714e1f370201ce480bd56e1c809cd6f4e75348144d7190220391f32aaaf32b7e12c84988f12aee1efadab21a850b0ab63ffa7b99991cb0735",
      "transactions": 0,
      "timestamp": {
        "epoch": 54335560,
        "unix": 1544436760,
        "human": "2018-12-10T10:12:40.000Z"
      }
    },
    {
      "id": "5213475885855819756",
      "version": 0,
      "height": 972691,
      "previous": "4989503577218076125",
      "forged": {
        "reward": 200000000,
        "fee": 0,
        "total": 200000000,
        "amount": 0
      },
      "payload": {
        "hash": "e3b0c44298fc1c149afbf4c8996fb92427ae41e4649b934ca495991b7852b855",
        "length": 0
      },
      "generator": {
        "username": "arkx",
        "address": "DNjuJEDQkhrJ7cA9FZ2iVXt5anYiM8Jtc9",
        "publicKey": "03bbfb43ecb5a54a1e227bb37b5812b5321213838d376e2b455b6af78442621dec"
      },
      "signature": "3044022001fa8f208f95d3efc8d8bb165faede62ea8aa07fc4078048b97ccef60b3a95bb02207cb0364506f5e50d6ff0b50e272270ae8444060cbbb7782bdcb53f9fc0bf1fa5",
      "transactions": 0,
      "timestamp": {
        "epoch": 54335554,
        "unix": 1544436754,
        "human": "2018-12-10T10:12:34.000Z"
      }
    },
    {
      "id": "4989503577218076125",
      "version": 0,
      "height": 972690,
      "previous": "6033742751750258411",
      "forged": {
        "reward": 200000000,
        "fee": 0,
        "total": 200000000,
        "amount": 0
      },
      "payload": {
        "hash": "e3b0c44298fc1c149afbf4c8996fb92427ae41e4649b934ca495991b7852b855",
        "length": 0
      },
      "generator": {
        "username": "dugtrio",
        "address": "DEvYK661KQQt55ME7xqT3XU8S9E2Ue8DCM",
        "publicKey": "0234d6760e557fb6db19b8d1c80b95a7e7732caa7dd28333624836dd84350549b1"
      },
      "signature": "30450221009a63cdba1d15ab1f6a138700c66f5fdcf3efbb7e7e494c57e693cf4ceb33271902201f184b31cfe24291c0c0a00d7d2cd210846c1bc27676bd1f4eda8d995e5d3ab6",
      "transactions": 0,
      "timestamp": {
        "epoch": 54335544,
        "unix": 1544436744,
        "human": "2018-12-10T10:12:24.000Z"
      }
    }
  ]
}