{
  "meta": {
    "count": 2,
    "pageCount": 10,
    "totalCount": 20,
    "next": "/api/v2/delegates/search?limit=2&page=2",
    "previous": null,
    "self": "/api/v2/delegates/search?limit=2&page=1",
    "first": "/api/v2/delegates/search?limit=2&page=1",
    "last": "/api/v2/delegates/search?limit=2&page=10"
  },
  "data": [{
    "username": "shape",
    "address": "DHuDQzCoa5gXM9MNrMyvX6e4FxYD1bc65G",
    "publicKey": "022e2cc4936680c4ccd2f59d11e2ec0d96907074305b8a7e498e415939c8574918",
    "votes": 0,
    "rank": 108,
    "blocks": {
      "produced": 0,
      "missed": 0
    },
    "production": {
      "approval": 0,
      "productivity": 0
    },
    "forged": {
      "fees": 0,
      "rewards": 0,
      "total": 0
    }
  }, {
    "username": "geops",
    "address": "DJpFwW39QnQvQRQJF2MCfAoKvsX4DJ28jq",
    "publicKey": "027716e659220085e41389efc7cf6a05f7f7c659cf3db9126caabce6cda9156582",
    "votes": 3958653525801,
    "rank": 19,
    "blocks": {
      "produced": 19021,
      "missed": 63,
      "last": {
        "id": "2219994160723784080",
        "height": 920645,
        "timestamp": {
          "epoch": 54707682,
          "unix": 1544808882,
          "human": "2018-12-14T17:34:42.000Z"
        }
      }
    },
    "production": {
      "approval": 0.03,
      "productivity": 99.67
    },
    "forged": {
      "fees": 97901729913,
      "rewards": 3764200000000,
      "total": 3862101729913
    }
  }]
}
