{
  "meta": {
    "count": 4,
    "pageCount": 7008,
    "totalCount": 28029,
    "next": "/api/v2/transactions/search?limit=4&page=2",
    "previous": null,
    "self": "/api/v2/transactions/search?limit=4&page=1",
    "first": "/api/v2/transactions/search?limit=4&page=1",
    "last": "/api/v2/transactions/search?limit=4&page=7008"
  },
  "data": [
    {
      "id": "825200109340795cbc3409eb1763bdc30511cd8ac596a3c36857d6fb80068404",
      "blockId": "17804703567798496132",
      "version": 1,
      "type": 0,
      "amount": 1,
      "fee": 10000000,
      "sender": "DKcFDN6mhLAheRAfmN6LT1e4AeyF1Fd9bY",
      "recipient": "DQUjMT6fhJWbwhaYL5pPdX9v5qPiRcAzRb",
      "signature": "304402200a45226aa123ea2297f80e1d27c6cc0fac526515182cc0c67fa83e7cd3c997a8022057d4ad55ac6a9a0357e31a2fd32f53675b1478dc9b73734abaf25119774b281a",
      "vendorField": "This is a transaction from Java",
      "confirmations": 748,
      "timestamp": {
        "epoch": 54454591,
        "unix": 1544555791,
        "human": "2018-12-11T19:16:31.000Z"
      }
    },
    {
      "id": "a1579e7c27d60a7b64b8d621c66bac247df447a388fe91c7a1ef37381674f951",
      "blockId": "1493296604592814355",
      "version": 1,
      "type": 0,
      "amount": 1,
      "fee": 10000000,
      "sender": "DKcFDN6mhLAheRAfmN6LT1e4AeyF1Fd9bY",
      "recipient": "DQUjMT6fhJWbwhaYL5pPdX9v5qPiRcAzRb",
      "signature": "3045022100c107e8cf44f0a6bad0ccd9876fdb3b95b87be1eb82d6bffa8ad2c8cb901f1fd90220414f3e0dbe37af3bc10a5e9c5fff0353e71e009348fba3d7a4da6771f32c1ea1",
      "vendorField": "This is a transaction from Java",
      "confirmations": 1343,
      "timestamp": {
        "epoch": 54449317,
        "unix": 1544550517,
        "human": "2018-12-11T17:48:37.000Z"
      }
    },
    {
      "id": "1057ee9bcbaba86e2141565200833fef989700fc09131a47290b5b6379884368",
      "blockId": "16085037531938436590",
      "version": 1,
      "type": 0,
      "amount": 1,
      "fee": 10000000,
      "sender": "DKcFDN6mhLAheRAfmN6LT1e4AeyF1Fd9bY",
      "recipient": "DQUjMT6fhJWbwhaYL5pPdX9v5qPiRcAzRb",
      "signature": "3045022100c659d4873454cd64d1046c5c9d2f1e18aece06acbf1b027b683f10726fb7b7b602203121e74d98372adef00d068185b086558d9ee372460b2070494fb5a69401d78a",
      "vendorField": "This is a transaction from Java",
      "confirmations": 1354,
      "timestamp": {
        "epoch": 54449192,
        "unix": 1544550392,
        "human": "2018-12-11T17:46:32.000Z"
      }
    },
    {
      "id": "eb07cc7ae5f22351c0ea3620f7d37946c36aaeafc75223ca7394af64e44d1a27",
      "blockId": "12284463280164015045",
      "version": 1,
      "type": 0,
      "amount": 1,
      "fee": 10000000,
      "sender": "DKcFDN6mhLAheRAfmN6LT1e4AeyF1Fd9bY",
      "recipient": "DQUjMT6fhJWbwhaYL5pPdX9v5qPiRcAzRb",
      "signature": "304402206bdf6756aba92022a08d5dbe8ecaaaac5e742f1450b41905966592348ca1aa3402201839a9a2758a27f86cca3b4a98ef72df3d863c5bd22a8e97edab545eb6781cd2",
      "vendorField": "This is a transaction from Java",
      "confirmations": 1399,
      "timestamp": {
        "epoch": 54448775,
        "unix": 1544549975,
        "human": "2018-12-11T17:39:35.000Z"
      }
    }
  ]
}
