{
  "meta": {
    "count": 5,
    "pageCount": 37216,
    "totalCount": 186076,
    "next": "/api/v2/wallets?limit=5&page=2",
    "previous": null,
    "self": "/api/v2/wallets?limit=5&page=1",
    "first": "/api/v2/wallets?limit=5&page=1",
    "last": "/api/v2/wallets?limit=5&page=37216"
  },
  "data": [
    {
      "address": "DGGdxzMVWeDz26qk4XFKriprBA9kruk4K9",
      "publicKey": "03f0b2920da0ed04d73e4b9a32a8320ead3aca253716339361bf9cc1d7a8b2d210",
      "username": "bulbasaur",
      "secondPublicKey": null,
      "balance": 100029800000000,
      "isDelegate": true
    },
    {
      "address": "DNjuJEDQkhrJ7cA9FZ2iVXt5anYiM8Jtc9",
      "publicKey": "03bbfb43ecb5a54a1e227bb37b5812b5321213838d376e2b455b6af78442621dec",
      "username": "arkx",
      "secondPublicKey": null,
      "balance": 43083134346224,
      "isDelegate": true
    },
    {
      "address": "D5NfW3xozpdZfPjXAtp5LGyNmLA8DdqHPd",
      "publicKey": "037a78fa57503ddf6f0aaff64650bdb5752cc47d96294516f778c1e95e1cba1995",
      "username": "nidoqueen",
      "secondPublicKey": null,
      "balance": 10030109203719,
      "isDelegate": true
    },
    {
      "address": "DCWhQ1TdjG3jD1gd64SMBG5VM3NXXaCBYz",
      "publicKey": "02fa68d16abd29a597c5cbd97704e6c6bfe8c7dd9f7a6871f485ced040b76621d5",
      "username": "spearow",
      "secondPublicKey": null,
      "balance": 10030000000020,
      "isDelegate": true
    },
    {
      "address": "DReMmBucGQETgLkVNnNBymGChDeNtau4fp",
      "publicKey": "0242bc62535379f627df2def3cc0c825050723ff8e0bc97b1e73c6aae57248d022",
      "username": "metapod",
      "secondPublicKey": null,
      "balance": 10030000000010,
      "isDelegate": true
    }
  ]
}