{
    "meta": {
        "totalCountIsEstimate": true,
        "count": 5,
        "pageCount": 584859,
        "totalCount": 2924291,
        "next": "/api/blocks?limit=5&page=3&transform=true",
        "previous": "/api/blocks?limit=5&page=1&transform=true",
        "self": "/api/blocks?limit=5&page=2&transform=true",
        "first": "/api/blocks?limit=5&page=1&transform=true",
        "last": "/api/blocks?limit=5&page=584859&transform=true"
    },
    "data": [
        {
            "id": "98505f47d6e66fd9c2d2f7df27a6db4476f880d27dbbd24fbfa772fd6804e2e4",
            "version": 0,
            "height": 2932337,
            "previous": "9abff43eb99ce487e9b6996626da8385e6fb5de017607a11054946fa1826d828",
            "forged": {
                "reward": "200000000",
                "fee": "0",
                "total": "200000000",
                "amount": "0"
            },
            "payload": {
                "hash": "e3b0c44298fc1c149afbf4c8996fb92427ae41e4649b934ca495991b7852b855",
                "length": 0
            },
            "generator": {
                "username": "generaliroh",
                "address": "DUTnUVuUFrW3SuWQMbR5ibYkcJ16KhfNKM",
                "publicKey": "02747353898e59c4f784542f357d5dd938a2872adb53abb94924091fddfdd83dc3"
            },
            "signature": "3045022100806d86ba21171ed6e8dabe6ba2636ee710fd8b9cd0dbda1978af772b915ffd2302203678eae493cda453fe5d90425efd86ef37c5fc5d88fe928cd37fd70768056bb5",
            "confirmations": 5,
            "transactions": 0,
            "timestamp": {
                "epoch": 72834216,
                "unix": 1562935416,
                "human": "2019-07-12T12:43:36.000Z"
            }
        },
        {
            "id": "9abff43eb99ce487e9b6996626da8385e6fb5de017607a11054946fa1826d828",
            "version": 0,
            "height": 2932336,
            "previous": "bb5f5e71900d76d3cb5a4606b3938cb6da7e6db40b0ea8d9efa2062b7b25a921",
            "forged": {
                "reward": "200000000",
                "fee": "0",
                "total": "200000000",
                "amount": "0"
            },
            "payload": {
                "hash": "e3b0c44298fc1c149afbf4c8996fb92427ae41e4649b934ca495991b7852b855",
                "length": 0
            },
            "generator": {
                "username": "espresso",
                "address": "D6xnWYxzQpdJt8tacrjNWqoJNHXKbaCMMc",
                "publicKey": "03eda1b9127d9a12a7c6903ca896534937ec492afa12ffa57a9aa6f3c77b618fdb"
            },
            "signature": "304402202d67cd400b9b55cb746b4129d658c5b5740e50ee80238cb0a1feac825fc76ba002200da782253ad66ebdacf9e87e0e3772d94882bb11b9ff57043a261e56fbd55c71",
            "confirmations": 6,
            "transactions": 0,
            "timestamp": {
                "epoch": 72834208,
                "unix": 1562935408,
                "human": "2019-07-12T12:43:28.000Z"
            }
        },
        {
            "id": "bb5f5e71900d76d3cb5a4606b3938cb6da7e6db40b0ea8d9efa2062b7b25a921",
            "version": 0,
            "height": 2932335,
            "previous": "29daa864a996fc53bc5037246d54bd45e04258512315788eb4ad7fc7b0891ffc",
            "forged": {
                "reward": "200000000",
                "fee": "0",
                "total": "200000000",
                "amount": "0"
            },
            "payload": {
                "hash": "e3b0c44298fc1c149afbf4c8996fb92427ae41e4649b934ca495991b7852b855",
                "length": 0
            },
            "generator": {
                "username": "munich",
                "address": "DKfEF2sykKCZzom3vFg1dp9D2kisB8hM2Q",
                "publicKey": "036a520acf24036ff691a4f8ba19514828e9b5aa36ca4ba0452e9012023caccfef"
            },
            "signature": "30450221008da067a42329fddecdf6c1df6da85c0fe35f4076e5eb2ee87136da6472be0d97022023b2b7fecbe64caec913570205456580e5bf561acf3619edfd6b1c063b4d3a53",
            "confirmations": 7,
            "transactions": 0,
            "timestamp": {
                "epoch": 72834200,
                "unix": 1562935400,
                "human": "2019-07-12T12:43:20.000Z"
            }
        },
        {
            "id": "29daa864a996fc53bc5037246d54bd45e04258512315788eb4ad7fc7b0891ffc",
            "version": 0,
            "height": 2932334,
            "previous": "1e7f70917948b65dfe949d3c954ef8d9878ce7a01858ac6df959b5ffc389c9a3",
            "forged": {
                "reward": "200000000",
                "fee": "0",
                "total": "200000000",
                "amount": "0"
            },
            "payload": {
                "hash": "e3b0c44298fc1c149afbf4c8996fb92427ae41e4649b934ca495991b7852b855",
                "length": 0
            },
            "generator": {
                "username": "nice",
                "address": "DDxARZtdJzuHmWRPEaHtNjc4mBoqEAeFW6",
                "publicKey": "03fbfbf9f29f86a8fc036997945fccd708e466035cb506ea804bbf5fda2eaac3a8"
            },
            "signature": "3043022007564b7e7fc98bbbacc8dc36c3a959ffedff54189313f9323f01b80abfe61877021f423b372b261e6ee58ee622f47ae8d7eff9af754b75498f5587bc4ffff8989f",
            "confirmations": 8,
            "transactions": 0,
            "timestamp": {
                "epoch": 72834192,
                "unix": 1562935392,
                "human": "2019-07-12T12:43:12.000Z"
            }
        },
        {
            "id": "1e7f70917948b65dfe949d3c954ef8d9878ce7a01858ac6df959b5ffc389c9a3",
            "version": 0,
            "height": 2932333,
            "previous": "0a4a024747c3712b939988c6ec5b122d0412411de22217ea573dac5fe3958e84",
            "forged": {
                "reward": "200000000",
                "fee": "0",
                "total": "200000000",
                "amount": "0"
            },
            "payload": {
                "hash": "e3b0c44298fc1c149afbf4c8996fb92427ae41e4649b934ca495991b7852b855",
                "length": 0
            },
            "generator": {
                "username": "cryptology",
                "address": "D9a4Y1qokJxTDEJcfzqW2io1bykdaoW5mp",
                "publicKey": "02d0244d939fad9004cc104f71b46b428d903e4f2988a65f39fdaa1b7482894c9e"
            },
            "signature": "3044022070090ae539922bdd68f11a4ea19a58e2155dcf8287b266df31a6d23a558d637c022056c8048ab62191a8df7775ed6c24e2c52322b728bc747020e13b6d477dc5b5bf",
            "confirmations": 9,
            "transactions": 0,
            "timestamp": {
                "epoch": 72834184,
                "unix": 1562935384,
                "human": "2019-07-12T12:43:04.000Z"
            }
        }
    ]
}
