{
  "meta": {
    "count": 100,
    "pageCount": 7,
    "totalCount": 606,
    "next": "/api/bridgechains?page=2&limit=100",
    "previous": null,
    "self": "/api/bridgechains?page=1&limit=100",
    "first": "/api/bridgechains?page=1&limit=100",
    "last": "/api/bridgechains?page=7&limit=100"
  },
  "data": [
    {
      "publicKey": "034da006f958beba78ec54443df4a3f52237253f7ae8cbdb17dccf3feaa57f3126",
      "name": "ARK",
      "seedNodes": [
        "1.1.1.1",
        "2.2.2.2"
      ],
      "genesisHash": "2a44f340d76ffc3df204c5f38cd355b7496c9065a1ade2ef92071436bd72e867",
      "bridgechainRepository": "https://github.com/arkecosystem/core",
      "ports": {
        "@arkecosystem/core-api": 4003
      }
    },
    {
      "publicKey": "02e7e9b33d19e5aa7ad092e8cdb5c973b44e2c761840c64a1abbe5571bb317d464",
      "name": "I Scream Ice Cream",
      "seedNodes": [
        "1.1.1.1",
        "1.2.3.4"
      ],
      "genesisHash": "6894079e5fc26776bd2a6d7b38cf90d1220064aa9acb96cdfc52cd203b20ff15",
      "bridgechainRepository": "http://localhost/core",
      "ports": {
        "@arkecosystem/core-api": 4003
      }
    },
    {
      "publicKey": "02e7e9b33d19e5aa7ad092e8cdb5c973b44e2c761840c64a1abbe5571bb317d464",
      "name": "Localhost is Best Host",
      "seedNodes": [
        "1.1.1.1",
        "1.2.3.4"
      ],
      "genesisHash": "efaba26621e84c5329f0a1cbd23eca927f1f6019a5825de121a0a92cd8e798c6",
      "bridgechainRepository": "http://127.0.0.1",
      "ports": {
        "@arkecosystem/core-api": 4003
      }
    },
    {
      "publicKey": "020611b40c71f84dfe6e41397d02c93512881bd577b6ec8379cdaefab1ab85e0f5",
      "name": "bridgechain-702523885191",
      "seedNodes": [
        "1.2.3.4"
      ],
      "genesisHash": "200a445e84ba5892c9324c7e89cdbb82d815536e2ac0f31b0c218fdf380ba5dc",
      "bridgechainRepository": "https://github.com/ArkEcosystem/core",
      "ports": {
        "@arkecosystem/core-api": 456
      }
    }
  ]
}