{
  "meta": {
    "count": 100,
    "pageCount": 2,
    "totalCount": 137,
    "next": "/api/businesses?page=2&limit=100",
    "previous": null,
    "self": "/api/businesses?page=1&limit=100",
    "first": "/api/businesses?page=1&limit=100",
    "last": "/api/businesses?page=2&limit=100"
  },
  "data": [
    {
      "businessId": 127,
      "name": "Devnet-1615417002",
      "website": "http://dexplorer.ark.io"
    },
    {
      "businessId": 128,
      "name": "Devnet-1615417002",
      "website": "http://dexplorer.ark.io"
    },
    {
      "businessId": 126,
      "name": "Devnet-2412013575",
      "website": "http://dexplorer.ark.io"
    },
    {
      "businessId": 125,
      "name": "Devnet-2412013575",
      "website": "http://dexplorer.ark.io"
    },
    {
      "businessId": 130,
      "name": "Devnet-31457890619760787",
      "website": "http://dexplorer.ark.io"
    },
    {
      "businessId": 129,
      "name": "Devnet-6799424439863022",
      "website": "http://dexplorer.ark.io"
    },
    {
      "businessId": 124,
      "name": "Devnet-7279267601",
      "website": "http://dexplorer.ark.io"
    },
    {
      "businessId": 134,
      "name": "ECorp",
      "website": "http://dexplorer.evil.io"
    },
    {
      "businessId": 81,
      "name": "Feetest",
      "website": "http://dexplorer.ark.io"
    },
    {
      "businessId": 82,
      "name": "Feetest",
      "website": "http://dexplorer.ark.io"
    },
    {
      "businessId": 83,
      "name": "Feetest",
      "website": "http://dexplorer.ark.io"
    },
    {
      "businessId": 121,
      "name": "Lemii-Inc-014f6626",
      "website": "https://www.lemii-inc-014f6626.com",
      "repository": "https://www.lemii-inc-014f6626.com/repository"
    },
    {
      "businessId": 28,
      "name": "Lemii-Inc-01e2b9c6",
      "website": "https://www.lemii-inc-01e2b9c6.com",
      "repository": "https://www.lemii-inc-01e2b9c6.com/repository"
    },
    {
      "businessId": 22,
      "name": "Lemii-Inc-035cb180",
      "website": "https://www.lemii-inc-035cb180.com",
      "repository": "https://www.lemii-inc-035cb180.com/repository"
    },
    {
      "businessId": 88,
      "name": "Lemii-Inc-037835be",
      "website": "https://www.lemii-inc-037835be.com",
      "repository": "https://www.lemii-inc-037835be.com/repository"
    },
    {
      "businessId": 43,
      "name": "Lemii-Inc-045f6705",
      "website": "https://www.lemii-inc-045f6705.com",
      "repository": "https://www.lemii-inc-045f6705.com/repository"
    },
    {
      "businessId": 38,
      "name": "Lemii-Inc-0478fc70",
      "website": "https://www.lemii-inc-0478fc70.com",
      "repository": "https://www.lemii-inc-0478fc70.com/repository"
    },
    {
      "businessId": 54,
      "name": "Lemii-Inc-07b85567",
      "website": "https://www.lemii-inc-07b85567.com",
      "repository": "https://www.lemii-inc-07b85567.com/repository"
    },
    {
      "businessId": 89,
      "name": "Lemii-Inc-0a87043f",
      "website": "https://www.lemii-inc-0a87043f.com",
      "repository": "https://www.lemii-inc-0a87043f.com/repository"
    },
    {
      "businessId": 115,
      "name": "Lemii-Inc-0c0a88b9",
      "website": "https://www.lemii-inc-0c0a88b9.com",
      "repository": "https://www.lemii-inc-0c0a88b9.com/repository"
    },
    {
      "businessId": 9,
      "name": "Lemii-Inc-0fa03bcc",
      "website": "https://www.lemii-inc-0fa03bcc.com",
      "repository": "https://www.lemii-inc-0fa03bcc.com/repository"
    },
    {
      "businessId": 50,
      "name": "Lemii-Inc-0fd0140e",
      "website": "https://www.lemii-inc-0fd0140e.com",
      "repository": "https://www.lemii-inc-0fd0140e.com/repository"
    },
    {
      "businessId": 87,
      "name": "Lemii-Inc-11728c80",
      "website": "https://www.lemii-inc-11728c80.com",
      "repository": "https://www.lemii-inc-11728c80.com/repository"
    },
    {
      "businessId": 65,
      "name": "Lemii-Inc-149849ab",
      "website": "https://www.lemii-inc-149849ab.com",
      "repository": "https://www.lemii-inc-149849ab.com/repository"
    },
    {
      "businessId": 42,
      "name": "Lemii-Inc-18ba7557",
      "website": "https://www.lemii-inc-18ba7557.com",
      "repository": "https://www.lemii-inc-18ba7557.com/repository"
    },
    {
      "businessId": 12,
      "name": "Lemii-Inc-197b2329",
      "website": "https://www.lemii-inc-197b2329.com",
      "repository": "https://www.lemii-inc-197b2329.com/repository"
    },
    {
      "businessId": 34,
      "name": "Lemii-Inc-1b6f14b9",
      "website": "https://www.lemii-inc-1b6f14b9.com",
      "repository": "https://www.lemii-inc-1b6f14b9.com/repository"
    },
    {
      "businessId": 110,
      "name": "Lemii-Inc-1d7d357b",
      "website": "https://www.lemii-inc-1d7d357b.com",
      "repository": "https://www.lemii-inc-1d7d357b.com/repository"
    },
    {
      "businessId": 69,
      "name": "Lemii-Inc-1fde6e41",
      "website": "https://www.lemii-inc-1fde6e41.com",
      "repository": "https://www.lemii-inc-1fde6e41.com/repository"
    },
    {
      "businessId": 75,
      "name": "Lemii-Inc-22116462",
      "website": "https://www.lemii-inc-22116462.com",
      "repository": "https://www.lemii-inc-22116462.com/repository"
    },
    {
      "businessId": 122,
      "name": "Lemii-Inc-2260bf09",
      "website": "https://www.lemii-inc-2260bf09.com",
      "repository": "https://www.lemii-inc-2260bf09.com/repository"
    },
    {
      "businessId": 59,
      "name": "Lemii-Inc-2270a85e",
      "website": "https://www.lemii-inc-2270a85e.com",
      "repository": "https://www.lemii-inc-2270a85e.com/repository"
    },
    {
      "businessId": 13,
      "name": "Lemii-Inc-22bda3ca",
      "website": "https://www.lemii-inc-22bda3ca.com",
      "repository": "https://www.lemii-inc-22bda3ca.com/repository"
    },
    {
      "businessId": 118,
      "name": "Lemii-Inc-22f73361",
      "website": "https://www.lemii-inc-22f73361.com",
      "repository": "https://www.lemii-inc-22f73361.com/repository"
    },
    {
      "businessId": 8,
      "name": "Lemii-Inc-2325e322",
      "website": "https://www.lemii-inc-2325e322.com",
      "repository": "https://www.lemii-inc-2325e322.com/repository"
    },
    {
      "businessId": 23,
      "name": "Lemii-Inc-268940c4",
      "website": "https://www.lemii-inc-268940c4.com",
      "repository": "https://www.lemii-inc-268940c4.com/repository"
    },
    {
      "businessId": 68,
      "name": "Lemii-Inc-282d1dc8",
      "website": "https://www.lemii-inc-282d1dc8.com",
      "repository": "https://www.lemii-inc-282d1dc8.com/repository"
    },
    {
      "businessId": 77,
      "name": "Lemii-Inc-2d35e68c",
      "website": "https://www.lemii-inc-2d35e68c.com",
      "repository": "https://www.lemii-inc-2d35e68c.com/repository"
    },
    {
      "businessId": 6,
      "name": "Lemii-Inc-2ef5017c",
      "website": "https://www.lemii-inc-2ef5017c.com",
      "repository": "https://www.lemii-inc-2ef5017c.com/repository"
    },
    {
      "businessId": 120,
      "name": "Lemii-Inc-2f790395",
      "website": "https://www.lemii-inc-2f790395.com",
      "repository": "https://www.lemii-inc-2f790395.com/repository"
    },
    {
      "businessId": 37,
      "name": "Lemii-Inc-31f1ef4a",
      "website": "https://www.lemii-inc-31f1ef4a.com",
      "repository": "https://www.lemii-inc-31f1ef4a.com/repository"
    },
    {
      "businessId": 53,
      "name": "Lemii-Inc-33aee28f",
      "website": "https://www.lemii-inc-33aee28f.com",
      "repository": "https://www.lemii-inc-33aee28f.com/repository"
    },
    {
      "businessId": 70,
      "name": "Lemii-Inc-3a80b70a",
      "website": "https://www.lemii-inc-3a80b70a.com",
      "repository": "https://www.lemii-inc-3a80b70a.com/repository"
    },
    {
      "businessId": 73,
      "name": "Lemii-Inc-3ac82dec",
      "website": "https://www.lemii-inc-3ac82dec.com",
      "repository": "https://www.lemii-inc-3ac82dec.com/repository"
    },
    {
      "businessId": 26,
      "name": "Lemii-Inc-3e2c7773",
      "website": "https://www.lemii-inc-3e2c7773.com",
      "repository": "https://www.lemii-inc-3e2c7773.com/repository"
    },
    {
      "businessId": 41,
      "name": "Lemii-Inc-43798a75",
      "website": "https://www.lemii-inc-43798a75.com",
      "repository": "https://www.lemii-inc-43798a75.com/repository"
    },
    {
      "businessId": 112,
      "name": "Lemii-Inc-48717fa0",
      "website": "https://www.lemii-inc-48717fa0.com",
      "repository": "https://www.lemii-inc-48717fa0.com/repository"
    },
    {
      "businessId": 116,
      "name": "Lemii-Inc-4b4b4e80",
      "website": "https://www.lemii-inc-4b4b4e80.com",
      "repository": "https://www.lemii-inc-4b4b4e80.com/repository"
    },
    {
      "businessId": 20,
      "name": "Lemii-Inc-4c5009f2",
      "website": "https://www.lemii-inc-4c5009f2.com",
      "repository": "https://www.lemii-inc-4c5009f2.com/repository"
    },
    {
      "businessId": 98,
      "name": "Lemii-Inc-4e42d264",
      "website": "https://www.lemii-inc-4e42d264.com",
      "repository": "https://www.lemii-inc-4e42d264.com/repository"
    },
    {
      "businessId": 57,
      "name": "Lemii-Inc-4ef57ab6",
      "website": "https://www.lemii-inc-4ef57ab6.com",
      "repository": "https://www.lemii-inc-4ef57ab6.com/repository"
    },
    {
      "businessId": 90,
      "name": "Lemii-Inc-5124fd63",
      "website": "https://www.lemii-inc-5124fd63.com",
      "repository": "https://www.lemii-inc-5124fd63.com/repository"
    },
    {
      "businessId": 71,
      "name": "Lemii-Inc-53b51ec1",
      "website": "https://www.lemii-inc-53b51ec1.com",
      "repository": "https://www.lemii-inc-53b51ec1.com/repository"
    },
    {
      "businessId": 27,
      "name": "Lemii-Inc-58119d3b",
      "website": "https://www.lemii-inc-58119d3b.com",
      "repository": "https://www.lemii-inc-58119d3b.com/repository"
    },
    {
      "businessId": 10,
      "name": "Lemii-Inc-5997e40b",
      "website": "https://www.lemii-inc-5997e40b.com",
      "repository": "https://www.lemii-inc-5997e40b.com/repository"
    },
    {
      "businessId": 78,
      "name": "Lemii-Inc-5cd95e1f",
      "website": "https://www.lemii-inc-5cd95e1f.com",
      "repository": "https://www.lemii-inc-5cd95e1f.com/repository"
    },
    {
      "businessId": 35,
      "name": "Lemii-Inc-60f4d715",
      "website": "https://www.lemii-inc-60f4d715.com",
      "repository": "https://www.lemii-inc-60f4d715.com/repository"
    },
    {
      "businessId": 48,
      "name": "Lemii-Inc-6183a843",
      "website": "https://www.lemii-inc-6183a843.com",
      "repository": "https://www.lemii-inc-6183a843.com/repository"
    },
    {
      "businessId": 114,
      "name": "Lemii-Inc-61b9e951",
      "website": "https://www.lemii-inc-61b9e951.com",
      "repository": "https://www.lemii-inc-61b9e951.com/repository"
    },
    {
      "businessId": 109,
      "name": "Lemii-Inc-6496ffb0",
      "website": "https://www.lemii-inc-6496ffb0.com",
      "repository": "https://www.lemii-inc-6496ffb0.com/repository"
    },
    {
      "businessId": 86,
      "name": "Lemii-Inc-64d2d843",
      "website": "https://www.lemii-inc-64d2d843.com",
      "repository": "https://www.lemii-inc-64d2d843.com/repository"
    },
    {
      "businessId": 30,
      "name": "Lemii-Inc-65705ebe",
      "website": "https://www.lemii-inc-65705ebe.com",
      "repository": "https://www.lemii-inc-65705ebe.com/repository"
    },
    {
      "businessId": 29,
      "name": "Lemii-Inc-6581632e",
      "website": "https://www.lemii-inc-6581632e.com",
      "repository": "https://www.lemii-inc-6581632e.com/repository"
    },
    {
      "businessId": 52,
      "name": "Lemii-Inc-67c0ee7b",
      "website": "https://www.lemii-inc-67c0ee7b.com",
      "repository": "https://www.lemii-inc-67c0ee7b.com/repository"
    },
    {
      "businessId": 107,
      "name": "Lemii-Inc-68077b16",
      "website": "https://www.lemii-inc-68077b16.com",
      "repository": "https://www.lemii-inc-68077b16.com/repository"
    },
    {
      "businessId": 36,
      "name": "Lemii-Inc-6fd75bdb",
      "website": "https://www.lemii-inc-6fd75bdb.com",
      "repository": "https://www.lemii-inc-6fd75bdb.com/repository"
    },
    {
      "businessId": 99,
      "name": "Lemii-Inc-6fef2201",
      "website": "https://www.lemii-inc-6fef2201.com",
      "repository": "https://www.lemii-inc-6fef2201.com/repository"
    },
    {
      "businessId": 33,
      "name": "Lemii-Inc-72c95d2b",
      "website": "https://www.lemii-inc-72c95d2b.com",
      "repository": "https://www.lemii-inc-72c95d2b.com/repository"
    },
    {
      "businessId": 111,
      "name": "Lemii-Inc-748fe9fe",
      "website": "https://www.lemii-inc-748fe9fe.com",
      "repository": "https://www.lemii-inc-748fe9fe.com/repository"
    },
    {
      "businessId": 4,
      "name": "Lemii-Inc-75919951",
      "website": "https://www.lemii-inc-75919951.com",
      "repository": "https://www.lemii-inc-75919951.com/repository"
    },
    {
      "businessId": 40,
      "name": "Lemii-Inc-78d73873",
      "website": "https://www.lemii-inc-78d73873.com",
      "repository": "https://www.lemii-inc-78d73873.com/repository"
    },
    {
      "businessId": 80,
      "name": "Lemii-Inc-7c0b1653",
      "website": "https://www.lemii-inc-7c0b1653.com",
      "repository": "https://www.lemii-inc-7c0b1653.com/repository"
    },
    {
      "businessId": 67,
      "name": "Lemii-Inc-7d0824e8",
      "website": "https://www.lemii-inc-7d0824e8.com",
      "repository": "https://www.lemii-inc-7d0824e8.com/repository"
    },
    {
      "businessId": 102,
      "name": "Lemii-Inc-7f20ce7e",
      "website": "https://www.lemii-inc-7f20ce7e.com",
      "repository": "https://www.lemii-inc-7f20ce7e.com/repository"
    },
    {
      "businessId": 76,
      "name": "Lemii-Inc-836cb351",
      "website": "https://www.lemii-inc-836cb351.com",
      "repository": "https://www.lemii-inc-836cb351.com/repository"
    },
    {
      "businessId": 123,
      "name": "Lemii-Inc-8724b1ce",
      "website": "https://www.lemii-inc-8724b1ce.com",
      "repository": "https://www.lemii-inc-8724b1ce.com/repository"
    },
    {
      "businessId": 64,
      "name": "Lemii-Inc-8789d2cd",
      "website": "https://www.lemii-inc-8789d2cd.com",
      "repository": "https://www.lemii-inc-8789d2cd.com/repository"
    },
    {
      "businessId": 100,
      "name": "Lemii-Inc-8c89828f",
      "website": "https://www.lemii-inc-8c89828f.com",
      "repository": "https://www.lemii-inc-8c89828f.com/repository"
    },
    {
      "businessId": 106,
      "name": "Lemii-Inc-8eaa7a8a",
      "website": "https://www.lemii-inc-8eaa7a8a.com",
      "repository": "https://www.lemii-inc-8eaa7a8a.com/repository"
    },
    {
      "businessId": 72,
      "name": "Lemii-Inc-90edca8a",
      "website": "https://www.lemii-inc-90edca8a.com",
      "repository": "https://www.lemii-inc-90edca8a.com/repository"
    },
    {
      "businessId": 24,
      "name": "Lemii-Inc-935806b9",
      "website": "https://www.lemii-inc-935806b9.com",
      "repository": "https://www.lemii-inc-935806b9.com/repository"
    },
    {
      "businessId": 113,
      "name": "Lemii-Inc-93da6c45",
      "website": "https://www.lemii-inc-93da6c45.com",
      "repository": "https://www.lemii-inc-93da6c45.com/repository"
    },
    {
      "businessId": 19,
      "name": "Lemii-Inc-95d1ddce",
      "website": "https://www.lemii-inc-95d1ddce.com",
      "repository": "https://www.lemii-inc-95d1ddce.com/repository"
    },
    {
      "businessId": 18,
      "name": "Lemii-Inc-95edddb5",
      "website": "https://www.lemii-inc-95edddb5.com",
      "repository": "https://www.lemii-inc-95edddb5.com/repository"
    },
    {
      "businessId": 21,
      "name": "Lemii-Inc-9832ae5f",
      "website": "https://www.lemii-inc-9832ae5f.com",
      "repository": "https://www.lemii-inc-9832ae5f.com/repository"
    },
    {
      "businessId": 74,
      "name": "Lemii-Inc-987257fb",
      "website": "https://www.lemii-inc-987257fb.com",
      "repository": "https://www.lemii-inc-987257fb.com/repository"
    },
    {
      "businessId": 119,
      "name": "Lemii-Inc-9c8b6bc4",
      "website": "https://www.lemii-inc-9c8b6bc4.com",
      "repository": "https://www.lemii-inc-9c8b6bc4.com/repository"
    },
    {
      "businessId": 32,
      "name": "Lemii-Inc-9cc31108",
      "website": "https://www.lemii-inc-9cc31108.com",
      "repository": "https://www.lemii-inc-9cc31108.com/repository"
    },
    {
      "businessId": 15,
      "name": "Lemii-Inc-9d327706",
      "website": "https://www.lemii-inc-9d327706.com",
      "repository": "https://www.lemii-inc-9d327706.com/repository"
    },
    {
      "businessId": 101,
      "name": "Lemii-Inc-a63c10e4",
      "website": "https://www.lemii-inc-a63c10e4.com",
      "repository": "https://www.lemii-inc-a63c10e4.com/repository"
    },
    {
      "businessId": 95,
      "name": "Lemii-Inc-a69b3050",
      "website": "https://www.lemii-inc-a69b3050.com",
      "repository": "https://www.lemii-inc-a69b3050.com/repository"
    },
    {
      "businessId": 94,
      "name": "Lemii-Inc-a6fd3b7d",
      "website": "https://www.lemii-inc-a6fd3b7d.com",
      "repository": "https://www.lemii-inc-a6fd3b7d.com/repository"
    },
    {
      "businessId": 31,
      "name": "Lemii-Inc-a8b142f4",
      "website": "https://www.lemii-inc-a8b142f4.com",
      "repository": "https://www.lemii-inc-a8b142f4.com/repository"
    },
    {
      "businessId": 49,
      "name": "Lemii-Inc-aad78594",
      "website": "https://www.lemii-inc-aad78594.com",
      "repository": "https://www.lemii-inc-aad78594.com/repository"
    },
    {
      "businessId": 91,
      "name": "Lemii-Inc-b35bc1ca",
      "website": "https://www.lemii-inc-b35bc1ca.com",
      "repository": "https://www.lemii-inc-b35bc1ca.com/repository"
    },
    {
      "businessId": 55,
      "name": "Lemii-Inc-b4a774af",
      "website": "https://www.lemii-inc-b4a774af.com",
      "repository": "https://www.lemii-inc-b4a774af.com/repository"
    },
    {
      "businessId": 58,
      "name": "Lemii-Inc-b69e370d",
      "website": "https://www.lemii-inc-b69e370d.com",
      "repository": "https://www.lemii-inc-b69e370d.com/repository"
    },
    {
      "businessId": 44,
      "name": "Lemii-Inc-b7b393a8",
      "website": "https://www.lemii-inc-b7b393a8.com",
      "repository": "https://www.lemii-inc-b7b393a8.com/repository"
    },
    {
      "businessId": 47,
      "name": "Lemii-Inc-b7ddc4b5",
      "website": "https://www.lemii-inc-b7ddc4b5.com",
      "repository": "https://www.lemii-inc-b7ddc4b5.com/repository"
    },
    {
      "businessId": 17,
      "name": "Lemii-Inc-b8b94d6d",
      "website": "https://www.lemii-inc-b8b94d6d.com",
      "repository": "https://www.lemii-inc-b8b94d6d.com/repository"
    }
  ]
}