{
    "meta": {
        "totalCountIsEstimate": false,
        "count": 10,
        "pageCount": 3805,
        "totalCount": 38042,
        "next": "/api/delegates/03120f521f7025f76341a09112f88a6c072411c549e4bfa8c92946fcf1c57cdf1e/blocks?limit=10&transform=true&page=2",
        "previous": null,
        "self": "/api/delegates/03120f521f7025f76341a09112f88a6c072411c549e4bfa8c92946fcf1c57cdf1e/blocks?limit=10&transform=true&page=1",
        "first": "/api/delegates/03120f521f7025f76341a09112f88a6c072411c549e4bfa8c92946fcf1c57cdf1e/blocks?limit=10&transform=true&page=1",
        "last": "/api/delegates/03120f521f7025f76341a09112f88a6c072411c549e4bfa8c92946fcf1c57cdf1e/blocks?limit=10&transform=true&page=3805"
    },
    "data": [
        {
            "id": "9948456390dfa61354db18f63be593b62ff410ae8e2647f87e7cbdb77addd3ff",
            "version": 0,
            "height": 4196485,
            "previous": "9890cacfd325b5e421f1b06ea925202b89ac9a54734cfa8cded18f181b5663b0",
            "forged": {
                "reward": "200000000",
                "fee": "0",
                "total": "200000000",
                "amount": "0"
            },
            "payload": {
                "hash": "e3b0c44298fc1c149afbf4c8996fb92427ae41e4649b934ca495991b7852b855",
                "length": 0
            },
            "generator": {
                "username": "proxima_centauri_b",
                "address": "DPEGnyKEpHfFL7vtbFNFsTgJSk9WoDRvV8",
                "publicKey": "03120f521f7025f76341a09112f88a6c072411c549e4bfa8c92946fcf1c57cdf1e"
            },
            "signature": "3045022100d3f5fdafe6d0de563a873d3242c08ac46db231ab5a580f145339c4d09e6968fd02201ed94e89f06f8981f2826f094654c4857b06c8cfd83328ab32ae941040a8b00c",
            "confirmations": 14,
            "transactions": 0,
            "timestamp": {
                "epoch": 83966504,
                "unix": 1574067704,
                "human": "2019-11-18T09:01:44.000Z"
            }
        },
        {
            "id": "7bc59b74e2e612345d3eb5fbd0a6b86fb3124d7f1277738fe09eb37edd2d6d75",
            "version": 0,
            "height": 4196471,
            "previous": "d83b5a60ddb786388139561b7c78dff475eefea3684a0045f1fe46b5ef89d923",
            "forged": {
                "reward": "200000000",
                "fee": "0",
                "total": "200000000",
                "amount": "0"
            },
            "payload": {
                "hash": "e3b0c44298fc1c149afbf4c8996fb92427ae41e4649b934ca495991b7852b855",
                "length": 0
            },
            "generator": {
                "username": "proxima_centauri_b",
                "address": "DPEGnyKEpHfFL7vtbFNFsTgJSk9WoDRvV8",
                "publicKey": "03120f521f7025f76341a09112f88a6c072411c549e4bfa8c92946fcf1c57cdf1e"
            },
            "signature": "3045022100ece98ccf8ff0c9ec8488dd8f610819d2735521886a1da7e2db4f7dc9a0b2250e02200b1ea89cd7fa4a136a49e4860a1828c15500eebf18f7a34b03f4b307e315d178",
            "confirmations": 28,
            "transactions": 0,
            "timestamp": {
                "epoch": 83966376,
                "unix": 1574067576,
                "human": "2019-11-18T08:59:36.000Z"
            }
        },
        {
            "id": "a034b14d4aeeed03785defec8ee123948334000d7cdcb2176e152e7774fbbd75",
            "version": 0,
            "height": 4196433,
            "previous": "da1a55611c086d0a7452b33337255c45854618a6d4bae4a6cce81e131e2b29cc",
            "forged": {
                "reward": "200000000",
                "fee": "0",
                "total": "200000000",
                "amount": "0"
            },
            "payload": {
                "hash": "e3b0c44298fc1c149afbf4c8996fb92427ae41e4649b934ca495991b7852b855",
                "length": 0
            },
            "generator": {
                "username": "proxima_centauri_b",
                "address": "DPEGnyKEpHfFL7vtbFNFsTgJSk9WoDRvV8",
                "publicKey": "03120f521f7025f76341a09112f88a6c072411c549e4bfa8c92946fcf1c57cdf1e"
            },
            "signature": "30440220204d0ab6bdcf97a6ebaf2070450023715454c154ef6b804b22298e2a8f92935f02202ce690d5829999f620926b9ac3834bf0749de2d9c8d3c0f13b15776a07984a53",
            "confirmations": 66,
            "transactions": 0,
            "timestamp": {
                "epoch": 83966064,
                "unix": 1574067264,
                "human": "2019-11-18T08:54:24.000Z"
            }
        },
        {
            "id": "379e39476003eac303c4c2b6192d90d6fb8401785acc22f9446dd0d9b966fc01",
            "version": 0,
            "height": 4196385,
            "previous": "11c76a268ab9e1323a1f49b94245f536ff6eb71b45d006a70e5e4b1be68920da",
            "forged": {
                "reward": "200000000",
                "fee": "0",
                "total": "200000000",
                "amount": "0"
            },
            "payload": {
                "hash": "e3b0c44298fc1c149afbf4c8996fb92427ae41e4649b934ca495991b7852b855",
                "length": 0
            },
            "generator": {
                "username": "proxima_centauri_b",
                "address": "DPEGnyKEpHfFL7vtbFNFsTgJSk9WoDRvV8",
                "publicKey": "03120f521f7025f76341a09112f88a6c072411c549e4bfa8c92946fcf1c57cdf1e"
            },
            "signature": "3045022100d065b0e9d5056352d46125d87d9bbecf81b168c7b2828c34ed379d7d6bd0c34702202ca76182a1b034c0d6060d83aac55af4b519f00b2360de42eb04d86520ffe5a9",
            "confirmations": 114,
            "transactions": 0,
            "timestamp": {
                "epoch": 83965656,
                "unix": 1574066856,
                "human": "2019-11-18T08:47:36.000Z"
            }
        },
        {
            "id": "89fb769006cef5be22ccc99ab54bca046bff1e8b9b0dd78991911ec3d8ff4172",
            "version": 0,
            "height": 4196363,
            "previous": "048fb772f767e20476199df7e2c9b968f0402b456c520aeebcc392e96ad6ac56",
            "forged": {
                "reward": "200000000",
                "fee": "0",
                "total": "200000000",
                "amount": "0"
            },
            "payload": {
                "hash": "e3b0c44298fc1c149afbf4c8996fb92427ae41e4649b934ca495991b7852b855",
                "length": 0
            },
            "generator": {
                "username": "proxima_centauri_b",
                "address": "DPEGnyKEpHfFL7vtbFNFsTgJSk9WoDRvV8",
                "publicKey": "03120f521f7025f76341a09112f88a6c072411c549e4bfa8c92946fcf1c57cdf1e"
            },
            "signature": "3044022040ca709fc3d6960c8fbd25c808641ddb12e7b452c48a36446e963a2c0b130e72022023a6923483e54f2706ef0ba21de68e6acbb237571d195839e00ecebe5300f4f1",
            "confirmations": 136,
            "transactions": 0,
            "timestamp": {
                "epoch": 83965480,
                "unix": 1574066680,
                "human": "2019-11-18T08:44:40.000Z"
            }
        },
        {
            "id": "e1c3105897a54ea3de4e4f3c1ef91625d9297d81e0aa38fb980936a09a2b80e7",
            "version": 0,
            "height": 4196321,
            "previous": "e3a4525ae0d8d9231646e77987211f97b00cc6000faa576e938246866e8be29f",
            "forged": {
                "reward": "200000000",
                "fee": "0",
                "total": "200000000",
                "amount": "0"
            },
            "payload": {
                "hash": "e3b0c44298fc1c149afbf4c8996fb92427ae41e4649b934ca495991b7852b855",
                "length": 0
            },
            "generator": {
                "username": "proxima_centauri_b",
                "address": "DPEGnyKEpHfFL7vtbFNFsTgJSk9WoDRvV8",
                "publicKey": "03120f521f7025f76341a09112f88a6c072411c549e4bfa8c92946fcf1c57cdf1e"
            },
            "signature": "3045022100d4aab3ef551fcf66901b79d49e72f45a25a31ade3a07895b22e3273bf51753cf0220165c23c9f2e5364d482df3b85c55a81e3f58abddab99e5a1ec6340046592c75e",
            "confirmations": 178,
            "transactions": 0,
            "timestamp": {
                "epoch": 83965104,
                "unix": 1574066304,
                "human": "2019-11-18T08:38:24.000Z"
            }
        },
        {
            "id": "69bdc056a52b297cf3764916f625f334350e377dccf67eac0fa1efdddd2dcb6f",
            "version": 0,
            "height": 4196241,
            "previous": "941965c5231fb7a0ae75ba2c9235ac78659e58bcc2616f6b5b06c4c032e74639",
            "forged": {
                "reward": "200000000",
                "fee": "0",
                "total": "200000000",
                "amount": "0"
            },
            "payload": {
                "hash": "e3b0c44298fc1c149afbf4c8996fb92427ae41e4649b934ca495991b7852b855",
                "length": 0
            },
            "generator": {
                "username": "proxima_centauri_b",
                "address": "DPEGnyKEpHfFL7vtbFNFsTgJSk9WoDRvV8",
                "publicKey": "03120f521f7025f76341a09112f88a6c072411c549e4bfa8c92946fcf1c57cdf1e"
            },
            "signature": "30450221009553e7126b0a7409facb21b8af04f28b523bb63c8ca2445288c579f0eda3857002201dac2e3aa6c71d87f83eacd98fb9a9c7458c0cbe17a9dbe5c37550b10794a2f1",
            "confirmations": 258,
            "transactions": 0,
            "timestamp": {
                "epoch": 83964432,
                "unix": 1574065632,
                "human": "2019-11-18T08:27:12.000Z"
            }
        },
        {
            "id": "6209baed9c98153f35641306209c2f1294a259cf7de4c98a734bd9878786afa4",
            "version": 0,
            "height": 4196224,
            "previous": "f196594a0da678c97f6d8332beb15d92bd3dd6b4b99f7e725b95c392a81e58e0",
            "forged": {
                "reward": "200000000",
                "fee": "0",
                "total": "200000000",
                "amount": "0"
            },
            "payload": {
                "hash": "e3b0c44298fc1c149afbf4c8996fb92427ae41e4649b934ca495991b7852b855",
                "length": 0
            },
            "generator": {
                "username": "proxima_centauri_b",
                "address": "DPEGnyKEpHfFL7vtbFNFsTgJSk9WoDRvV8",
                "publicKey": "03120f521f7025f76341a09112f88a6c072411c549e4bfa8c92946fcf1c57cdf1e"
            },
            "signature": "3045022100b7d19e348c6181a2bd499a375548bb9e2a63f41e90c4ef9c2047e0dd414e89840220531e2ff11c04f05b8f20f79d04e28eb5dbe884d37b8bcc8a8c90a990b128ae00",
            "confirmations": 275,
            "transactions": 0,
            "timestamp": {
                "epoch": 83964296,
                "unix": 1574065496,
                "human": "2019-11-18T08:24:56.000Z"
            }
        },
        {
            "id": "7958ae24e90896970897b689711d96a9bbdd0891e5e85aad05f13f9de88e4a2a",
            "version": 0,
            "height": 4196143,
            "previous": "bde813deab667f9d5c6c36d765ccafdb74c36f8c584aea556d63cdf482133bb8",
            "forged": {
                "reward": "200000000",
                "fee": "0",
                "total": "200000000",
                "amount": "0"
            },
            "payload": {
                "hash": "e3b0c44298fc1c149afbf4c8996fb92427ae41e4649b934ca495991b7852b855",
                "length": 0
            },
            "generator": {
                "username": "proxima_centauri_b",
                "address": "DPEGnyKEpHfFL7vtbFNFsTgJSk9WoDRvV8",
                "publicKey": "03120f521f7025f76341a09112f88a6c072411c549e4bfa8c92946fcf1c57cdf1e"
            },
            "signature": "3044022037e741858593ae09f11126b9ef68083ebc1ca96786c7fe61d7c797dec433e1cd0220516aa15dc57a3fee21129d6f1484fa4daece4325a2a401360d5841c9097f0d54",
            "confirmations": 356,
            "transactions": 0,
            "timestamp": {
                "epoch": 83963616,
                "unix": 1574064816,
                "human": "2019-11-18T08:13:36.000Z"
            }
        },
        {
            "id": "c7bdb8a83eb76c18e5126745c6661573d92c9749cb1f0ba936a30bccad14ff6a",
            "version": 0,
            "height": 4196116,
            "previous": "44506177ac4b44546dd2d6209acf3f1b0fdd351774e0f8828fa6c7f53585e476",
            "forged": {
                "reward": "200000000",
                "fee": "0",
                "total": "200000000",
                "amount": "0"
            },
            "payload": {
                "hash": "e3b0c44298fc1c149afbf4c8996fb92427ae41e4649b934ca495991b7852b855",
                "length": 0
            },
            "generator": {
                "username": "proxima_centauri_b",
                "address": "DPEGnyKEpHfFL7vtbFNFsTgJSk9WoDRvV8",
                "publicKey": "03120f521f7025f76341a09112f88a6c072411c549e4bfa8c92946fcf1c57cdf1e"
            },
            "signature": "3044022028acf6e283aae8a864012b8008e5fd54aaf6dd8e5d82d29c8dcfed7ba6931cb202202e2a5a62b3f217ea5cfac95467bbb55ffb6374ee6babba34db9dbc67da3082d2",
            "confirmations": 383,
            "transactions": 0,
            "timestamp": {
                "epoch": 83963376,
                "unix": 1574064576,
                "human": "2019-11-18T08:09:36.000Z"
            }
        }
    ]
}
