{
    "meta": {
        "count": 2,
        "pageCount": 197,
        "totalCount": 393,
        "next": "/api/delegates?limit=2&offset=5&page=2",
        "previous": null,
        "self": "/api/delegates?limit=2&offset=5&page=1",
        "first": "/api/delegates?limit=2&offset=5&page=1",
        "last": "/api/delegates?limit=2&offset=5&page=197"
    },
    "data": [
        {
            "username": "dmak",
            "address": "DKZXdbi8Di4JUjoRFRsGVqfAcRUtXd7vuq",
            "publicKey": "02c2a320d263320fe5bb8495bf334af396993d3a2739d068d6fc9c10db3c90cb63",
            "votes": "31717083562440",
            "rank": 6,
            "blocks": {
                "produced": 42563,
                "last": {
                    "id": "77185309b8a8dc034aeb41c1bd4c8a563756b24360a43409d3a0546b664b7b3b",
                    "height": 2932303,
                    "timestamp": {
                        "epoch": 72833944,
                        "unix": 1562935144,
                        "human": "2019-07-12T12:39:04.000Z"
                    }
                }
            },
            "production": {
                "approval": 0.25
            },
            "forged": {
                "fees": "7605583418",
                "rewards": "8512600000000",
                "total": "8520205583418"
            }
        },
        {
            "username": "cryptology",
            "address": "D9a4Y1qokJxTDEJcfzqW2io1bykdaoW5mp",
            "publicKey": "02d0244d939fad9004cc104f71b46b428d903e4f2988a65f39fdaa1b7482894c9e",
            "votes": "31709868650395",
            "rank": 7,
            "blocks": {
                "produced": 54666,
                "last": {
                    "id": "41263ea873677686b10cccf5a7add7a18f6a4d51b231aba537739b00350fb2e2",
                    "height": 2932258,
                    "timestamp": {
                        "epoch": 72833584,
                        "unix": 1562934784,
                        "human": "2019-07-12T12:33:04.000Z"
                    }
                }
            },
            "production": {
                "approval": 0.25
            },
            "forged": {
                "fees": "203750574557",
                "rewards": "10892400000000",
                "total": "11096150574557"
            }
        }
    ]
}
