{
    "meta": {
        "count": 4,
        "pageCount": 7008,
        "totalCount": 28029,
        "next": "/api/v2/transactions/search?limit=4&page=2",
        "previous": null,
        "self": "/api/v2/transactions/search?limit=4&page=1",
        "first": "/api/v2/transactions/search?limit=4&page=1",
        "last": "/api/v2/transactions/search?limit=4&page=7008"
    },
    "data": [
        {
            "id": "5503b991b4841bda87ee93be371cfc4ecbdf0d93947eb93f2df891f32daf1f29",
            "blockId": "1b95829ef46f7e6ed2155fee4c418965fb25af4cc151e062762d03b813c5799a",
            "version": 1,
            "type": 0,
            "amount": "990000",
            "fee": "500000",
            "sender": "DUTnUVuUFrW3SuWQMbR5ibYkcJ16KhfNKM",
            "senderPublicKey": "02747353898e59c4f784542f357d5dd938a2872adb53abb94924091fddfdd83dc3",
            "recipient": "DQdpw8RPwZKri4HsHxgMVyuLi5memjxo97",
            "signature": "30440220178a8b05a6af84e1e34679dfcfea5997a5bbd82a2bcda0ae164e8c6d79b9da3202201c760a48ff0a4b3a9919a068a4549c8eb8e82801493fd60003257aab6df183fa",
            "vendorField": "generaliroh - this is just leafy water",
            "confirmations": 657,
            "timestamp": {
                "epoch": 72828921,
                "unix": 1562930121,
                "human": "2019-07-12T11:15:21.000Z"
            }
        },
        {
            "id": "e9e90f3f091418dc4c65f833031ac380e19778ceca2d7604253ff87d85e4b713",
            "blockId": "5a0d7931969254569767e9ec0bcb8e5d5ad5b1c64c308c9f974708c40014241f",
            "version": 1,
            "type": 0,
            "amount": "1980000",
            "fee": "500000",
            "sender": "DUTnUVuUFrW3SuWQMbR5ibYkcJ16KhfNKM",
            "senderPublicKey": "02747353898e59c4f784542f357d5dd938a2872adb53abb94924091fddfdd83dc3",
            "recipient": "DQdpw8RPwZKri4HsHxgMVyuLi5memjxo97",
            "signature": "304402205fa50fb2c7f155fc3ca3ba4bf357af23833655870dfe5f48ef2685c2078090d80220760947da6b35ba99d0ab2d6839c8847b689b79e61f8db79208773c5c959a933a",
            "vendorField": "generaliroh - this is just leafy water",
            "confirmations": 770,
            "timestamp": {
                "epoch": 72828289,
                "unix": 1562929489,
                "human": "2019-07-12T11:04:49.000Z"
            }
        },
        {
            "id": "d394d4a6994efe890a92fcdb25557c45fad754a1d55617a7e2bb71734b67911d",
            "blockId": "5a0d7931969254569767e9ec0bcb8e5d5ad5b1c64c308c9f974708c40014241f",
            "version": 1,
            "type": 0,
            "amount": "1980000",
            "fee": "500000",
            "sender": "DUTnUVuUFrW3SuWQMbR5ibYkcJ16KhfNKM",
            "senderPublicKey": "02747353898e59c4f784542f357d5dd938a2872adb53abb94924091fddfdd83dc3",
            "recipient": "DFrnspWhQsJVQswy6qkWWgpyGm4Kj1FA8s",
            "signature": "3044022007834f90b5d935995b38140c8b788d98bccf27d9c8d76e08baf729703007183a022048d2526f6af50d0e7218cc5c2dd4534e190a423038f78722c7e250c265a48bdb",
            "vendorField": "generaliroh - uncle",
            "confirmations": 770,
            "timestamp": {
                "epoch": 72828289,
                "unix": 1562929489,
                "human": "2019-07-12T11:04:49.000Z"
            }
        },
        {
            "id": "901d12d1bed6dcc51cae380a57e03cfbaee5dfbae9ce7ae5f50641770b87fd6f",
            "blockId": "5a0d7931969254569767e9ec0bcb8e5d5ad5b1c64c308c9f974708c40014241f",
            "version": 1,
            "type": 0,
            "amount": "392040000",
            "fee": "500000",
            "sender": "DUTnUVuUFrW3SuWQMbR5ibYkcJ16KhfNKM",
            "senderPublicKey": "02747353898e59c4f784542f357d5dd938a2872adb53abb94924091fddfdd83dc3",
            "recipient": "DUTnUVuUFrW3SuWQMbR5ibYkcJ16KhfNKM",
            "signature": "3045022100b3e0d004d989adda0412dd95c29e1d33e12d6fe9a259c7174afd00872cbe89e602206e9d6633d0c26f3aaa26395a53cafd7dcd1b3bfea73f293de56a3e8a8e49635a",
            "vendorField": "generaliroh - the dragon of the west",
            "confirmations": 770,
            "timestamp": {
                "epoch": 72828289,
                "unix": 1562929489,
                "human": "2019-07-12T11:04:49.000Z"
            }
        }
    ]
}
