{
    "meta": {
        "totalCountIsEstimate": true,
        "count": 2,
        "pageCount": 3032,
        "totalCount": 6064,
        "next": "/api/votes?limit=2&page=6&transform=true",
        "previous": "/api/votes?limit=2&page=4&transform=true",
        "self": "/api/votes?limit=2&page=5&transform=true",
        "first": "/api/votes?limit=2&page=1&transform=true",
        "last": "/api/votes?limit=2&page=3032&transform=true"
    },
    "data": [
        {
            "id": "057a0bf90fe4a280fb2235cd891850712e0a330a4d293caee334181d293d8616",
            "blockId": "b9bb1129fe6488489afe22a05aebde6b793fd36e04c97105af90a405df662b4a",
            "version": 1,
            "type": 3,
            "amount": "0",
            "fee": "95446623",
            "sender": "D9pdjP9HW71E4b56eCaCqHHVazD44cnAVZ",
            "senderPublicKey": "0358c2c18eddf9c08befc44c8436a744fe366b3fbcd6eaf4cb9fc2d56e17ba9700",
            "recipient": "D9pdjP9HW71E4b56eCaCqHHVazD44cnAVZ",
            "signature": "3045022100b410ad6f78d3729b52c643fa18437057188415ed90c1c12eca43303a3e29454602203d036ae01f5db8176c09b45eba974d63edc45151ccab44b72667ee6d395a1fa5",
            "asset": {
                "votes": [
                    "-0215789ac26155b7a338708f595b97c453e08918d0630c896cbd31d83fe2ad1c33"
                ]
            },
            "confirmations": 10893,
            "timestamp": {
                "epoch": 72747317,
                "unix": 1562848517,
                "human": "2019-07-11T12:35:17.000Z"
            }
        },
        {
            "id": "f5e80d601c05ebb86ae7c453b3904c64cda00e3c3e2bc690145a79e65decf6c1",
            "blockId": "6a08d22abb05ed6a81c6ba3a85fa19a842c16a478c1c88672907a515a77060ac",
            "version": 1,
            "type": 3,
            "amount": "0",
            "fee": "36458334",
            "sender": "D9pdjP9HW71E4b56eCaCqHHVazD44cnAVZ",
            "senderPublicKey": "0358c2c18eddf9c08befc44c8436a744fe366b3fbcd6eaf4cb9fc2d56e17ba9700",
            "recipient": "D9pdjP9HW71E4b56eCaCqHHVazD44cnAVZ",
            "signature": "3045022100ac6ab02c0512981545aa968c007f914180986ff232eebcac90f7da6bb9283f0e0220137047756056beba1af1537c0a425b88967a9fca303d47e190569c1f01db2e6a",
            "asset": {
                "votes": [
                    "+0215789ac26155b7a338708f595b97c453e08918d0630c896cbd31d83fe2ad1c33"
                ]
            },
            "confirmations": 10907,
            "timestamp": {
                "epoch": 72747207,
                "unix": 1562848407,
                "human": "2019-07-11T12:33:27.000Z"
            }
        }
    ]
}
