{
    "meta": {
        "totalCountIsEstimate": true,
        "count": 1,
        "pageCount": 131,
        "totalCount": 131,
        "next": "/api/wallets/DBk4cPYpqp7EBcvkstVDpyX7RQJNHxpMg8/transactions?page=2&limit=1&transform=true",
        "previous": null,
        "self": "/api/wallets/DBk4cPYpqp7EBcvkstVDpyX7RQJNHxpMg8/transactions?page=1&limit=1&transform=true",
        "first": "/api/wallets/DBk4cPYpqp7EBcvkstVDpyX7RQJNHxpMg8/transactions?page=1&limit=1&transform=true",
        "last": "/api/wallets/DBk4cPYpqp7EBcvkstVDpyX7RQJNHxpMg8/transactions?page=131&limit=1&transform=true"
    },
    "data": [
        {
            "id": "ec691dbdeafcbbbf2ead85f9872940d07268e4005f06cc6c068465b53345bf4d",
            "blockId": "5990823240868268390",
            "version": 1,
            "type": 0,
            "amount": "100000000000",
            "fee": "10000000",
            "sender": "D6Z26L69gdk9qYmTv5uzk3uGepigtHY4ax",
            "senderPublicKey": "03d3fdad9c5b25bf8880e6b519eb3611a5c0b31adebc8455f0e096175b28321aff",
            "recipient": "DBk4cPYpqp7EBcvkstVDpyX7RQJNHxpMg8",
            "signature": "304402204063eb997f81feb3ea9359b8e6d56bbc72aa80d0b448835d9c37ec9f4c6af04c02205820d3feca8f46eb25ffb52e952949d30ff0aba59a5852161bb16a9ede0ba496",
            "vendorField": "make it rain",
            "confirmations": 2932300,
            "timestamp": {
                "epoch": 45021730,
                "unix": 1535122930,
                "human": "2018-08-24T15:02:10.000Z"
            }
        }
    ]
}
