{
  "meta": {
    "count": 100,
    "pageCount": 1971,
    "totalCount": 197073,
    "next": "/api/wallets?page=2&limit=100",
    "previous": null,
    "self": "/api/wallets?page=1&limit=100",
    "first": "/api/wallets?page=1&limit=100",
    "last": "/api/wallets?page=1971&limit=100"
  },
  "data": [
    {
      "address": "D6Z26L69gdk9qYmTv5uzk3uGepigtHY4ax",
      "publicKey": "03d3fdad9c5b25bf8880e6b519eb3611a5c0b31adebc8455f0e096175b28321aff",
      "nonce": "247",
      "balance": "9850440192231098",
      "isDelegate": false,
      "isResigned": false
    },
    {
      "address": "DEyaFhDuaoQyKbFH4gJtYZvKkB6umyrEUj",
      "publicKey": "033c59dcdc36944cc28f68c1e4b47ac370fe326e53f9adf5f07764d3e8b74b1838",
      "username": "whalessio",
      "nonce": "2111",
      "secondPublicKey": "03820f214bd49a09c636fa366b4b3c1a0dbd2953d14aac7e68a596e0636e662dfb",
      "balance": "2000044819999638",
      "isDelegate": true,
      "isResigned": false,
      "vote": "033a5474f68f92f254691e93c06a2f22efaf7d66b543a53efcece021819653a200"
    },
    {
      "address": "DSyG9hK9CE8eyfddUoEvsga4kNVQLdw2ve",
      "publicKey": "033a5474f68f92f254691e93c06a2f22efaf7d66b543a53efcece021819653a200",
      "username": "alessio",
      "nonce": "21572",
      "secondPublicKey": "026de1cd4321a7e78a7b4d8453d1b1ca210eaf991022c55a99e9b0b9ebddbbd502",
      "balance": "156491725652147",
      "isDelegate": true,
      "isResigned": false,
      "vote": "0215789ac26155b7a338708f595b97c453e08918d0630c896cbd31d83fe2ad1c33"
    },
    {
      "address": "DEz1Mr4uJ7NaiufwKEj28atCRPTmsUqh9t",
      "publicKey": "0215789ac26155b7a338708f595b97c453e08918d0630c896cbd31d83fe2ad1c33",
      "username": "alexxio",
      "nonce": "73",
      "balance": "85579410124818",
      "isDelegate": true,
      "isResigned": false,
      "vote": "036b029d87e525e3396acabbb07bd2e8b86704d0c3681e0b4af0e119cbaa1b03c4"
    },
    {
      "address": "DNjuJEDQkhrJ7cA9FZ2iVXt5anYiM8Jtc9",
      "publicKey": "03bbfb43ecb5a54a1e227bb37b5812b5321213838d376e2b455b6af78442621dec",
      "username": "arkx",
      "nonce": "110491",
      "balance": "56075736593419",
      "isDelegate": true,
      "isResigned": false,
      "vote": "03bbfb43ecb5a54a1e227bb37b5812b5321213838d376e2b455b6af78442621dec"
    }
  ]
}
