{
    "meta": {
        "totalCountIsEstimate": true,
        "count": 1,
        "pageCount": 51,
        "totalCount": 51,
        "next": "/api/wallets/DBk4cPYpqp7EBcvkstVDpyX7RQJNHxpMg8/transactions/sent?page=2&limit=1&transform=true",
        "previous": null,
        "self": "/api/wallets/DBk4cPYpqp7EBcvkstVDpyX7RQJNHxpMg8/transactions/sent?page=1&limit=1&transform=true",
        "first": "/api/wallets/DBk4cPYpqp7EBcvkstVDpyX7RQJNHxpMg8/transactions/sent?page=1&limit=1&transform=true",
        "last": "/api/wallets/DBk4cPYpqp7EBcvkstVDpyX7RQJNHxpMg8/transactions/sent?page=51&limit=1&transform=true"
    },
    "data": [
        {
            "id": "fd0e3a7c582c7eaff50df58623c5e53653e77b99a033a9db44e8f42f55860777",
            "blockId": "86d268da401e44d57eafe72ab75fd0ba17ef4ca051148b77a828e2b52bc1667b",
            "version": 1,
            "type": 0,
            "amount": "63647550",
            "fee": "1500000",
            "sender": "DBk4cPYpqp7EBcvkstVDpyX7RQJNHxpMg8",
            "senderPublicKey": "0236d5232cdbd1e7ab87fad10ebe689c4557bc9d0c408b6773be964c837231d5f0",
            "recipient": "DTRdbaUW3RQQSL5By4G43JVaeHiqfVp9oh",
            "signature": "30440220357a585f914750cf21a5dc823fea240c3827b48c26c85d6f3f9f2aca1e83bd4602200487711f9ca3612248cc5482888907b7577fd9f69eeb2474ba7b1165af71fe27",
            "signSignature": "3045022100c9bd9c826c386de9bb060ba685ff994d1f6b2640f6816c8faf0a09927976eb3d022004a8d121ef7cc0720e7b01a1b8ee939469ec569337865b1f7b8fac1b089acfe2",
            "vendorField": "itsanametoo: profit share",
            "confirmations": 129202,
            "timestamp": {
                "epoch": 71794333,
                "unix": 1561895533,
                "human": "2019-06-30T11:52:13.000Z"
            }
        }
    ]
}
