{
  "meta": {
    "count": 100,
    "pageCount": 1971,
    "totalCount": 197073,
    "next": "/api/wallets/top?page=2&limit=100",
    "previous": null,
    "self": "/api/wallets/top?page=1&limit=100",
    "first": "/api/wallets/top?page=1&limit=100",
    "last": "/api/wallets/top?page=1971&limit=100"
  },
  "data": [
    {
      "address": "D6Z26L69gdk9qYmTv5uzk3uGepigtHY4ax",
      "publicKey": "03d3fdad9c5b25bf8880e6b519eb3611a5c0b31adebc8455f0e096175b28321aff",
      "nonce": "247",
      "balance": "9850440192231098",
      "isDelegate": false,
      "isResigned": false
    },
    {
      "address": "DEyaFhDuaoQyKbFH4gJtYZvKkB6umyrEUj",
      "publicKey": "033c59dcdc36944cc28f68c1e4b47ac370fe326e53f9adf5f07764d3e8b74b1838",
      "username": "whalessio",
      "nonce": "2111",
      "secondPublicKey": "03820f214bd49a09c636fa366b4b3c1a0dbd2953d14aac7e68a596e0636e662dfb",
      "balance": "2000044819999638",
      "isDelegate": true,
      "isResigned": false,
      "vote": "033a5474f68f92f254691e93c06a2f22efaf7d66b543a53efcece021819653a200"
    },
    {
      "address": "DSyG9hK9CE8eyfddUoEvsga4kNVQLdw2ve",
      "publicKey": "033a5474f68f92f254691e93c06a2f22efaf7d66b543a53efcece021819653a200",
      "username": "alessio",
      "nonce": "21572",
      "secondPublicKey": "026de1cd4321a7e78a7b4d8453d1b1ca210eaf991022c55a99e9b0b9ebddbbd502",
      "balance": "156497725652147",
      "isDelegate": true,
      "isResigned": false,
      "vote": "0215789ac26155b7a338708f595b97c453e08918d0630c896cbd31d83fe2ad1c33"
    },
    {
      "address": "DEz1Mr4uJ7NaiufwKEj28atCRPTmsUqh9t",
      "publicKey": "0215789ac26155b7a338708f595b97c453e08918d0630c896cbd31d83fe2ad1c33",
      "username": "alexxio",
      "nonce": "73",
      "balance": "85585410124818",
      "isDelegate": true,
      "isResigned": false,
      "vote": "036b029d87e525e3396acabbb07bd2e8b86704d0c3681e0b4af0e119cbaa1b03c4"
    },
    {
      "address": "DNjuJEDQkhrJ7cA9FZ2iVXt5anYiM8Jtc9",
      "publicKey": "03bbfb43ecb5a54a1e227bb37b5812b5321213838d376e2b455b6af78442621dec",
      "username": "arkx",
      "nonce": "110491",
      "balance": "56082136593419",
      "isDelegate": true,
      "isResigned": false,
      "vote": "03bbfb43ecb5a54a1e227bb37b5812b5321213838d376e2b455b6af78442621dec"
    },
    {
      "address": "DBk4cPYpqp7EBcvkstVDpyX7RQJNHxpMg8",
      "publicKey": "0236d5232cdbd1e7ab87fad10ebe689c4557bc9d0c408b6773be964c837231d5f0",
      "username": "itsanametoo",
      "nonce": "141",
      "secondPublicKey": "03e7cfaa3ae06e89c217df2057e92cae2bc40164aeaa5ab955645690141b1b7be6",
      "balance": "40342945987523",
      "isDelegate": true,
      "isResigned": false,
      "vote": "0236d5232cdbd1e7ab87fad10ebe689c4557bc9d0c408b6773be964c837231d5f0"
    },
    {
      "address": "DKfEF2sykKCZzom3vFg1dp9D2kisB8hM2Q",
      "publicKey": "036a520acf24036ff691a4f8ba19514828e9b5aa36ca4ba0452e9012023caccfef",
      "username": "munich",
      "nonce": "53",
      "balance": "36467818358361",
      "isDelegate": true,
      "isResigned": false,
      "vote": "036a520acf24036ff691a4f8ba19514828e9b5aa36ca4ba0452e9012023caccfef"
    },
    {
      "address": "DKZXdbi8Di4JUjoRFRsGVqfAcRUtXd7vuq",
      "publicKey": "02c2a320d263320fe5bb8495bf334af396993d3a2739d068d6fc9c10db3c90cb63",
      "username": "dmak",
      "nonce": "8",
      "balance": "35584003009276",
      "isDelegate": true,
      "isResigned": false,
      "vote": "02c2a320d263320fe5bb8495bf334af396993d3a2739d068d6fc9c10db3c90cb63"
    },
    {
      "address": "D9a4Y1qokJxTDEJcfzqW2io1bykdaoW5mp",
      "publicKey": "02d0244d939fad9004cc104f71b46b428d903e4f2988a65f39fdaa1b7482894c9e",
      "username": "cryptology",
      "nonce": "7628",
      "balance": "34773805445781",
      "isDelegate": true,
      "isResigned": false,
      "vote": "02d0244d939fad9004cc104f71b46b428d903e4f2988a65f39fdaa1b7482894c9e"
    },
    {
      "address": "DAmw29eYtctJSP3KrbHXqfKxuU57rTaUab",
      "publicKey": "025f8e2dcdc246a13e4a51bec296df4fe7b35651cff60330f97bb68f79fc733e28",
      "username": "dated",
      "nonce": "9",
      "balance": "29952840124038",
      "isDelegate": true,
      "isResigned": false,
      "vote": "025f8e2dcdc246a13e4a51bec296df4fe7b35651cff60330f97bb68f79fc733e28"
    }
  ]
}
