{
  "meta": {
    "count": 100,
    "pageCount": 9,
    "totalCount": 863,
    "next": "/api/wallets/search?page=2&limit=100",
    "previous": null,
    "self": "/api/wallets/search?page=1&limit=100",
    "first": "/api/wallets/search?page=1&limit=100",
    "last": "/api/wallets/search?page=9&limit=100"
  },
  "data": [
    {
      "address": "DG3K73p6RGTS1vAYBTYFaZYSDjJ8i94Lrw",
      "publicKey": "03a8ff0321caffd980fd2b42b239fcac6d3a557171b7644a85312d69f00fac9c0e",
      "nonce": "8",
      "balance": "20000000",
      "isDelegate": false,
      "isResigned": false
    },
    {
      "address": "D7qKjTkeM4jR2auSrB6BCZLWih6sPujnCP",
      "publicKey": "03228a6f8c13ef55ed503ced2c31bb9fd9f70299df5e435b4fdc8c964c938a0a11",
      "nonce": "15",
      "balance": "20000000",
      "isDelegate": false,
      "isResigned": false
    },
    {
      "address": "DTjSRXDR6BrZXdXQpYqxvwt3jofYEXF7ZG",
      "publicKey": "02ca9d84da123bef7a8b84debc6cdda23e7f37e761eccb4b4475ba942043b79b6a",
      "nonce": "8",
      "balance": "20000000",
      "isDelegate": false,
      "isResigned": false
    },
    {
      "address": "DEXAvncAPbdfXCzNt6vHb1zLvVxFshRRQj",
      "nonce": "0",
      "balance": "20000000",
      "isDelegate": false,
      "isResigned": false
    },
    {
      "address": "DN4me7rhk832DFv3JE2kbQLx2o5157b7NH",
      "publicKey": "033cf71b63c1a2e518c83b1ffe3eb7653bd6682987241a5f05504f78c76b45bc2c",
      "nonce": "5",
      "balance": "20000000",
      "isDelegate": false,
      "isResigned": false
    },
    {
      "address": "DF4SfGH6RDwbztwMu7B6FckeCw27DkdwUm",
      "publicKey": "021fc2d6361678977d7a1bdd4dbe57e247694f7fa0381deb3e8195c256889aae62",
      "nonce": "5",
      "balance": "20000000",
      "isDelegate": false,
      "isResigned": false
    },
    {
      "address": "DSJWyxK11o9E6AG117zjV3oWAfieT4Hr25",
      "nonce": "0",
      "balance": "20000000",
      "isDelegate": false,
      "isResigned": false
    }
  ]
}